…
folds <- vfold_cv(train_data, v = 10) 

rf_grid <- grid_regular(
              mtry(range = c(1, 30)),
              min_n(range = c(5, 50)),
              levels = 5  
            )

rf_grid
```

```
## # A tibble: 25 × 2
##     mtry min_n
##    <int> <int>
##  1     1     5
##  2     8     5
##  3    15     5
##  4    22     5
##  5    30     5
##  6     1    16
##  7     8    16
##  8    15    16
##  9    22    16
## 10    30    16
## # ℹ 15 more rows
```
…
