…
This is a synthetic cohort of 106747 unique patients with 138 variables. All variables are numeric.  In this health administrative dataset, there are 41,187 observations and 138 variables. Among them 94 are categorical variable, 43 numeric variable.


**Missing Data Information**


``` r
missing_table <- miss_var_summary(data_synt)
missing_table
```

```
## # A tibble: 138 × 3
##    variable                               n_miss pct_miss
##    <chr>                                   <int>    <num>
##  1 bilirubin_direct_peri                  105668     99.0
##  2 crp_high_sensitive_peri                103962     97.4
##  3 NTproBNP_peri_highest                  102515     96.0
##  4 time_to_outcome_afib_aflutter_new_post 100256     93.9
##  5 esr_peri                                96159     90.1
##  6 urine_alb_cr_ratio_peri                 92369     86.5
##  7 aspartate_transaminase_peri             89967     84.3
##  8 troponin_t_hs_peri_highest              79055     74.1
##  9 time_to_outcome_all_cause_death         78309     73.4
## 10 ck_peri                                 78306     73.4
## # ℹ 128 more rows
```
…
``` r
data_synt1 <- data_synt1 %>%
          select(where(~sum(is.na(.x))/length(.x) < 0.50))
```

``` r
missing_table <- miss_var_summary(data_synt1)
missing_table
```

```
## # A tibble: 120 × 3
##    variable                    n_miss pct_miss
##    <chr>                        <int>    <num>
##  1 hga1c_peri_highest           52452     49.1
##  2 alkaline_phophatase_peri     49434     46.3
##  3 ldl_peri_highest             48603     45.5
##  4 tg_peri_highest              48187     45.1
##  5 hdl_peri_lowest              48132     45.1
##  6 tchol_peri_highest           47402     44.4
##  7 urea_peri                    46127     43.2
##  8 tsh_peri                     42648     40.0
##  9 glucose_random_peri_highest  39798     37.3
## 10 alanine_transaminase_peri    35778     33.5
## # ℹ 110 more rows
```
…
