…
**Missing Data Information**


``` r
missing_table <- miss_var_summary(data_synt1)
missing_table
```

```
## # A tibble: 36 × 3
##    variable                    n_miss pct_miss
##    <chr>                        <int>    <num>
##  1 ecg_resting_hr                   0        0
##  2 ecg_resting_pr                   0        0
##  3 ecg_resting_qrs                  0        0
##  4 ecg_resting_qtc                  0        0
##  5 ecg_resting_paced                0        0
##  6 ecg_resting_bigeminy             0        0
##  7 ecg_resting_LBBB                 0        0
##  8 ecg_resting_RBBB                 0        0
##  9 ecg_resting_incomplete_LBBB      0        0
## 10 ecg_resting_incomplete_RBBB      0        0
## # ℹ 26 more rows
```
…
logistic_workflow <- workflow() %>% 
          add_model(logistic_model) %>% 
          add_recipe(all_recipe) %>% 
          tune_grid(resamples = folds,
                    control = control_grid(save_pred = TRUE, 
                                            verbose = FALSE)) ## Edit for running live

collect_metrics(logistic_workflow) 
```

```
## # A tibble: 30 × 8
##          penalty mixture .metric     .estimator   mean     n  std_err .config   
##            <dbl>   <dbl> <chr>       <chr>       <dbl> <int>    <dbl> <chr>     
##  1 0.00633        0.0659 accuracy    binary     0.916      5 0.000752 Preproces…
##  2 0.00633        0.0659 brier_class binary     0.0645     5 0.000504 Preproces…
##  3 0.00633        0.0659 roc_auc     binary     0.961      5 0.000787 Preproces…
##  4 0.00000000138  0.214  accuracy    binary     0.916      5 0.000730 Preproces…
##  5 0.00000000138  0.214  brier_class binary     0.0637     5 0.000528 Preproces…
##  6 0.00000000138  0.214  roc_auc     binary     0.960      5 0.000920 Preproces…
##  7 0.000163       0.269  accuracy    binary     0.916      5 0.000722 Preproces…
##  8 0.000163       0.269  brier_class binary     0.0637     5 0.000527 Preproces…
##  9 0.000163       0.269  roc_auc     binary     0.960      5 0.000916 Preproces…
## 10 0.00000207     0.351  accuracy    binary     0.916      5 0.000717 Preproces…
## # ℹ 20 more rows
```
…
```
## i Creating pre-processing data to finalize unknown parameter: mtry
```


``` r
collect_metrics(rf_workflow) 
```

```
## # A tibble: 30 × 9
##     mtry trees min_n .metric     .estimator   mean     n  std_err .config       
##    <int> <int> <int> <chr>       <chr>       <dbl> <int>    <dbl> <chr>         
##  1    12   869    31 accuracy    binary     0.952      5 0.000355 Preprocessor1…
##  2    12   869    31 brier_class binary     0.0360     5 0.000274 Preprocessor1…
##  3    12   869    31 roc_auc     binary     0.969      5 0.00126  Preprocessor1…
##  4    22  1161     3 accuracy    binary     0.957      5 0.000326 Preprocessor1…
##  5    22  1161     3 brier_class binary     0.0327     5 0.000262 Preprocessor1…
##  6    22  1161     3 roc_auc     binary     0.967      5 0.00145  Preprocessor1…
##  7    29  1835    14 accuracy    binary     0.955      5 0.000463 Preprocessor1…
##  8    29  1835    14 brier_class binary     0.0340     5 0.000279 Preprocessor1…
##  9    29  1835    14 roc_auc     binary     0.966      5 0.00154  Preprocessor1…
## 10    17  1530    12 accuracy    binary     0.955      5 0.000409 Preprocessor1…
## # ℹ 20 more rows
```
…
