…
``` r
missing_table <- miss_var_summary(data)
missing_table
```

```
## # A tibble: 431 × 3
##    variable                       n_miss pct_miss
##    <chr>                           <int>    <num>
##  1 DIS_CARDIO_PREM_HD_FEMALE_EVER  41081     99.7
##  2 DIS_CARDIO_PREM_HD_MALE_EVER    41061     99.7
##  3 DIS_MH_BIPOLAR_EVER             40914     99.3
##  4 DIS_EAR_TINNITUS_NATURE         40880     99.3
##  5 DIS_ENDO_TD_AGE                 40862     99.2
##  6 DIS_ENDO_SUGAR_AGE              40861     99.2
##  7 DIS_RESP_OTHER_EVER             40858     99.2
##  8 DIS_MH_EATING_EVER              40857     99.2
##  9 DIS_LIVER_FATTY_EVER            40856     99.2
## 10 DIS_EAR_TINNITUS_FREQ           40854     99.2
## # ℹ 421 more rows
```
…
``` r
data <- data %>%
          select(where(~sum(is.na(.x))/length(.x) < 0.50))

missing_table <- miss_var_summary(data)
```

``` r
missing_table <- miss_var_summary(data)
missing_table
```

```
## # A tibble: 232 × 3
##    variable              n_miss pct_miss
##    <chr>                  <int>    <num>
##  1 PM_WAIST_HIP_RATIO_SR  17734     43.1
##  2 PM_HIP_SR_AVG          17349     42.1
##  3 WH_MENSTRUATION_AGE    17026     41.3
##  4 PM_WAIST_SR_AVG        16400     39.8
##  5 HS_PAP_EVER            16182     39.3
##  6 HS_MMG_EVER            15995     38.8
##  7 PM_BMI_SR              11976     29.1
##  8 PM_WEIGHT_SR_AVG       11707     28.4
##  9 PA_TOTAL_SIT_TIME      11272     27.4
## 10 PA_SIT_AVG_TIME_DAY    11257     27.3
## # ℹ 222 more rows
```
…
